{
    "modules": [
        { "id": "./indexer-module.js" }
    ],
    "indexing": {
        "fromBlockLevel": 1468130,
        "//": "Only index the registration contract - see https://better-call.dev/mainnet/KT191reDVKrLxU9rjTSxg53wRqj6zh8pnHgr",
        "contracts": ["KT191reDVKrLxU9rjTSxg53wRqj6zh8pnHgr"]
    },
    "tezosNode": {
        "url": "https://mainnet-tezos.giganode.io"
    },
    "database": {
        "type": "postgres",
        "host": "localhost",
        "port": 5432,
        "username": "postgres",
        "password": "postgrespassword",
        "database": "postgres",
        "schema": "quick_start_ts"
    }
}
